{
	"overAllDetail": {
		"target": "150000",
		"earnedCommision": "75000",
		"startDate": "01/05/2016",
		"endDate": "16/05/2016",
		"memberType": "Silver",
		"behindPer": "40"
	},
	"convert": [{
		"percent": "77",
		"customerName": "Hardi",
		"contactNo": "8776767676",
		"product": "Metlife life time insurance"
	}, {
		"percent": "52",
		"customerName": "Manasi",
		"contactNo": "8998976543",
		"product": "Metlife life time insurance"
	}, {
		"percent": "66",
		"customerName": "Madona",
		"contactNo": "8998976544",
		"product": "Metlife insurance"
	}],
	"sell": [{
		"product": "Matlife longterm insurance",
		"detail": "Financial security through regular income. Cover for spouse",
		"status": "active"
	}, {
		"product": "Matlife longterm insurance",
		"detail": "Financial security through regular income. Cover for spouse",
		"status": "inactive"
	}, {
		"product": "Matlife longterm insurance",
		"detail": "Financial security through regular income. Cover for spouse",
		"status": "active"
	}],
	"meet": [{
		"percent": "77",
		"customerName": "Gohan",
		"contactNo": "9667589330",
		"product": "Metlife life time insurance"
	}, {
		"percent": "65",
		"customerName": "Manasa",
		"contactNo": "9667589330",
		"product": "Metlife life time insurance"
	}, {
		"percent": "54",
		"customerName": "Tanui",
		"contactNo": "9667589330",
		"product": "Metlife life time insurance"
	}]
}