{
  "PreLogin": {
    "subFeatures": [
      {
        "name": "preLogin",
        "workflowTemplateFile": "navigation/preLogin/templates/preLoginWorkflow.json"
      }
    ]
  },
  "Dashboard": {
    "subFeatures": [
      {
        "name": "Dashboard",
        "workflowTemplateFile": "navigation/dashboard/templates/dashboardWorkflow.json"
      }
    ]
  },
  "login": {
    "subFeatures": [
      {
        "name": "login",
        "workflowTemplateFile": "navigation/login/templates/loginWorkflow.json"
      }
    ]
  },
  "creditRequest": {
    "subFeatures": [
      {
        "name": "creditRequest",
        "workflowTemplateFile": "navigation/creditRequest/templates/creditRequestWorkflow.json"
      }
    ]
  },
  "postRating": {
    "subFeatures": [
      {
        "name": "postRating",
        "workflowTemplateFile": "navigation/postRating/templates/postRatingWorkflow.json"
      }
    ]
  },
  "patron": {
    "subFeatures": [
      {
        "name": "patron",
        "workflowTemplateFile": "navigation/patron/templates/patronWorkflow.json"
      }
    ]
  },
  "adjustGamingTable": {
    "subFeatures": [
      {
        "name": "adjustGamingTable",
        "workflowTemplateFile": "navigation/adjustGamingTable/templates/adjustGamingTableWorkflow.json"
      }
    ]
  },
  "adjustGamingTableClose": {
    "subFeatures": [
      {
        "name": "adjustGamingTable",
        "workflowTemplateFile": "navigation/adjustGamingTableClose/templates/adjustGamingTableCloseWorkflow.json"
      }
    ]
  },

  "openGamingTable": {
    "subFeatures": [
      {
        "name": "openGamingTable",
        "workflowTemplateFile": "navigation/openGamingTable/templates/openGamingTableWorkflow.json"
      }
    ]
  },

    "closeGamingTable": {
       "subFeatures": [
         {
           "name": "closeGamingTable",
           "workflowTemplateFile": "navigation/closeGamingTable/templates/closeGamingTableWorkflow.json"
         }
       ]
     },

  "pitStatusDisplay": {
    "subFeatures": [
      {
        "name": "pitStatusDisplay",
        "workflowTemplateFile": "navigation/pitStatusDisplay/templates/pitStatusDisplayWorkflow.json"
      }
    ]
  },
  "FinacleCommonFeatures": {
    "subFeatures": [
      {
        "name": "FinacleCommon",
        "workflowTemplateFile": "navigation/common/templates/FinacleCommonWorkflow.json"
      }
    ]
  },
  "chat": {
    "subFeatures": [
      {
        "name": "chat",
        "workflowTemplateFile": "navigation/chat/templates/chatWorkflow.json"
      }
    ]
  }
}
