{
	"pageNavigation":
  	[
		{ "adjustGamingTablePage" :
			[
        {
          "eventName": "onAdjustGameTableClick",
          "action": "navigation",
          "actionType": "navigation",
          "successPage": {
            "pageName": "postAdjustGamingTablePage",
            "subFeature": "adjustGamingTable"
          },
          "error": {
            "pageName": "SubFeature2"
          }
        },
       { 
          	"eventName" : "onFormClick",
				  	"action" : "adjustGamingTableOpenService",
				  	"actionType":"service",
				  	"successPage" : {
						"pageName": "adjustGamingTablePage",
						"subFeature":"adjustGamingTable"
				  	},
				  	"error" : {
						"pageName": "SubFeature2"
					}
				}
			]
		}
  	],
	"subFeatureName": "adjustGamingTable",
	"startPage": "adjustGamingTablePage"
}
