{
	"pageNavigation":
  	[
		{ "adjustGamingTablePageClose" :
			[
        {
          "eventName": "onAdjustGameTableClick",
          "action": "navigation",
          "actionType": "navigation",
          "successPage": {
            "pageName": "postAdjustGamingTablePageClose",
            "subFeature": "adjustGamingTableClose"
          },
          "error": {
            "pageName": "SubFeature2"
          }
        }
			]
		}
  	],
	"subFeatureName": "adjustGamingTableClose",
	"startPage": "adjustGamingTablePageClose"
}
