{
    "pageNavigation": [
        {
            "FinacleConfirmationPage": [
	          { "eventName" : "onGoalClick",
	          "validation":"false",
	          "action" : "AgentPerformanceService",
	          "actionType":"service",
	  	      "successPage" : {
                "pageName": "MycreditRequest",
                "subFeatureName":"creditRequest"
              },
	          "errorPage" : {"pageName": "home"}
	          },
            {
              "eventName": "onFinishClick",

              "action": "navigation",
              "actionType": "navigation",
              "successPage": {
                "pageName": "home",
                "subFeatureName": "Dashboard"
              },
              "errorPage": { "pageName": "home" }
            },

            { "eventName" : "onlogOutClick",
	     
	          "action" : "navigation",
	          "actionType":"navigation",
	  	      "successPage" : {
                "pageName": "loginPage",
                "subFeatureName":"login"
              },
	          "errorPage" : {"pageName": "home"}
	          },

              {
                    "eventName": "onDashboardClick",
                    "action": "navigation",
                    "actionType": "navigation",
                    "successPage": {
                        "pageName": "home",
                        "subFeature": "Dashboard"
                    },
                    "error": {
                        "pageName": "Login",
                        "subFeature": "prelogin"
                    }
                },
                {
                    "eventName": "oncreditRequestAnalysisClick",
                    "action": "AgentPerformanceAnalysisService",
                    "actionType": "service",
                    "successPage": {
                        "pageName": "MycreditRequestAnalysis",
                        "subFeature": "Dashboard"
                    },
                    "error": {
                        "pageName": "home",
                        "subFeature": "prelogin"
                    }
                },
              {
                "eventName": "onpostRatingClick",
                "action": "paymentService",
                "actionType": "service",
                "successPage": {
                  "pageName": "postRatingPage",
                  "subFeature": "postRating"
                },
                "error": {
                  "pageName": "home",
                  "subFeature": "prelogin"
                }
              },
              {
                "eventName": "onPatronClick",
                "action": "paymentService",
                "actionType": "service",
                "successPage": {
                  "pageName": "patronPage",
                  "subFeature": "patron"
                },
                "error": {
                  "pageName": "patronPage",
                  "subFeature": "patron"
                }
              },
              {
                "eventName": "onAdjustGamingTableClick",
                "action": "paymentService",
                "actionType": "service",
                "successPage": {
                  "pageName": "adjustGamingTablePage",
                  "subFeature": "adjustGamingTable"
                },
                "error": {
                  "pageName": "home",
                  "subFeature": "prelogin"
                }
              },

              {
                "eventName": "onAdjustGamingTableCloseClick",
                "action": "paymentService",
                "actionType": "service",
                "successPage": {
                  "pageName": "adjustGamingTablePageClose",
                  "subFeature": "adjustGamingTableClose"
                },
                "error": {
                  "pageName": "home",
                  "subFeature": "prelogin"
                }
              },

              {
                "eventName": "onOpenGamingTableClick",
                "action": "paymentService",
                "actionType": "service",
                "successPage": {
                  "pageName": "openGamingTablePage",
                  "subFeature": "openGamingTable"
                },
                "error": {
                  "pageName": "home",
                  "subFeature": "prelogin"
                }
              },
             {
                "eventName": "onCloseGamingTableClick",
                "action": "paymentService",
                "actionType": "service",
                "successPage": {
                  "pageName": "closeGamingTablePage",
                  "subFeature": "closeGamingTable"
                },
                "error": {
                  "pageName": "home",
                  "subFeature": "prelogin"
                }
              },

              {
                "eventName": "onPitStatusDisplayClick",
                "action": "paymentService",
                "actionType": "service",
                "successPage": {
                  "pageName": "pitStatusDisplayPage",
                  "subFeature": "pitStatusDisplay"
                },
                "error": {
                  "pageName": "home",
                  "subFeature": "prelogin"
                }
              },
                            
              { 
          			"eventName" : "onRequestClick",
				  	    "action" : "navigation",
				  	    "actionType":"navigation",
				  	    "successPage" : {
						    "pageName": "CreditRequestSuccess",
						    "subFeature":"creditRequest"
				  	    },
				  	    "error" : {
						        "pageName": "CreditRequestSuccess"
					        }
				        },
                {
              "eventName": "onCustomersClick",
              "action": "CustomerDetailService",
              "actionType": "service",
              "successPage": {
                  "pageName": "CustomersPage",
                  "subFeature": "Customers"
              },
              "error": {
                  "pageName": "home",
                  "subFeature": "prelogin"
                  }
              }

            ]
        }
    ],
    "subFeatureName": "FinacleCommon",
    "startPage": "FinacleConfirmationPage"
}
