{
	"pageNavigation": [
		{
			"home": [
				{ 
          			"eventName" : "onGoalClick",
				  	"action" : "AgentPerformanceService",
				  	"actionType":"service",
				  	"successPage" : {
						"pageName": "MycreditRequest",
						"subFeature":"creditRequest"
				  	},
				  	"error" : {
						"pageName": "SubFeature2"
					}
				},
				{
					"eventName": "onDashboardClick",
					"action": "navigation",
					"actionType": "navigation",
					"successPage": {
						"subFeature": "DashBoard",
						"pageName": "Dashboard"
					},
					"error": {
						"pageName": "Login"
					}
				}
			]
		}
	],
	"subFeatureName": "dashboard",
	"startPage": "home"
}