{
	"pageNavigation":
  	[
    	{ "postRatingPage" :
			[
				{ 
          			"eventName" : "onFormClick",
				  	"action" : "patronService",
				  	"actionType":"service",
				  	"successPage" : {
						"pageName": "postRatingForm",
						"subFeature":"postRating"
				  	},
				  	"error" : {
						"pageName": "SubFeature2"
					}
				}
			]
		},
		{ "postRatingVideoChatPage" :
			[
				{ 
          			"eventName" : "onPaymentModeClick",
				  	"action" : "paymentService",
				  	"actionType":"service",
				  	"successPage" : {
						"pageName": "postRatingPaymentModePage",
						"subFeature":"postRating"
				  	},
				  	"error" : {
						"pageName": "SubFeature2"
					}
				}
			]
		},
		{ "postRatingForm" :
			[
				{ 
          			"eventName" : "onVideoClick",
				  	"action" : "navigation",
				  	"actionType":"navigation",
				  	"successPage" : {
						"pageName": "postRatingVideoChatPage",
						"subFeature":"postRating"
				  	},
				  	"error" : {
						"pageName": "SubFeature2"
					}
				}
			]
		},
		{ "postRatingPaymentModePage" :
			[
				{ 
          			"eventName" : "onSuccessClick",
				  	"action" : "postRatingSuccessService",
                    "actionType":"service",
				  	"successPage" : {
						"pageName": "postRatingSuccessPage",
						"subFeature":"postRating"
				  	},
				  	"error" : {
						"pageName": "SubFeature2"
					}
				}
			]
		}
  	],
	"subFeatureName": "postRating",
	"startPage": "postRatingPage"
}
